Petite introduction au package purrr – Introduction au package purrr
…
[1] "penguins_2007.csv" "penguins_2008.csv" "penguins_2009.csv"

# ils sont bien créés

# l'année est contenue dans le nom du fichier, avant '.csv', on l'ajoute au nom du vecteur file_paths
file_paths <- set_names(file_paths, stringr::str_extract(file_paths, "\\d+(?=\\.csv$)"))
# on importe les fichiers avec imap en ajoutant l'année comme variable grâce au nom
penguins_list <- imap(file_paths, 
                      ~readr::read_csv(.x, show_col_types = FALSE) %>%
                        mutate(year = as.integer(.y)))
# on vérifie que les données ont bien été importées
penguins_list

$`2007`
# A tibble: 110 × 8
   species island    bill_len bill_dep flipper_len body_mass sex     year
   <chr>   <chr>        <dbl>    <dbl>       <dbl>     <dbl> <chr>  <int>
 1 Adelie  Torgersen     39.1     18.7         181      3750 male    2007
 2 Adelie  Torgersen     39.5     17.4         186      3800 female  2007
 3 Adelie  Torgersen     40.3     18           195      3250 female  2007
 4 Adelie  Torgersen     NA       NA            NA        NA <NA>    2007
 5 Adelie  Torgersen     36.7     19.3         193      3450 female  2007
 6 Adelie  Torgersen     39.3     20.6         190      3650 male    2007
 7 Adelie  Torgersen     38.9     17.8         181      3625 female  2007
 8 Adelie  Torgersen     39.2     19.6         195      4675 male    2007
 9 Adelie  Torgersen     34.1     18.1         193      3475 <NA>    2007
10 Adelie  Torgersen     42       20.2         190      4250 <NA>    2007
# ℹ 100 more rows

$`2008`
# A tibble: 114 × 8
   species island bill_len bill_dep flipper_len body_mass sex     year
   <chr>   <chr>     <dbl>    <dbl>       <dbl>     <dbl> <chr>  <int>
 1 Adelie  Biscoe     39.6     17.7         186      3500 female  2008
 2 Adelie  Biscoe     40.1     18.9         188      4300 male    2008
 3 Adelie  Biscoe     35       17.9         190      3450 female  2008
 4 Adelie  Biscoe     42       19.5         200      4050 male    2008
 5 Adelie  Biscoe     34.5     18.1         187      2900 female  2008
 6 Adelie  Biscoe     41.4     18.6         191      3700 male    2008
 7 Adelie  Biscoe     39       17.5         186      3550 female  2008
 8 Adelie  Biscoe     40.6     18.8         193      3800 male    2008
 9 Adelie  Biscoe     36.5     16.6         181      2850 female  2008
10 Adelie  Biscoe     37.6     19.1         194      3750 male    2008
# ℹ 104 more rows

$`2009`
# A tibble: 120 × 8
   species island bill_len bill_dep flipper_len body_mass sex     year
   <chr>   <chr>     <dbl>    <dbl>       <dbl>     <dbl> <chr>  <int>
 1 Adelie  Biscoe     35       17.9         192      3725 female  2009
 2 Adelie  Biscoe     41       20           203      4725 male    2009
 3 Adelie  Biscoe     37.7     16           183      3075 female  2009
 4 Adelie  Biscoe     37.8     20           190      4250 male    2009
 5 Adelie  Biscoe     37.9     18.6         193      2925 female  2009
 6 Adelie  Biscoe     39.7     18.9         184      3550 male    2009
 7 Adelie  Biscoe     38.6     17.2         199      3750 female  2009
 8 Adelie  Biscoe     38.2     20           190      3900 male    2009
 9 Adelie  Biscoe     38.1     17           181      3175 female  2009
10 Adelie  Biscoe     43.2     19           197      4775 male    2009
# ℹ 110 more rows

# on peut refusionner les data.frames en un seul
list_rbind(penguins_list)

# A tibble: 344 × 8
   species island    bill_len bill_dep flipper_len body_mass sex     year
   <chr>   <chr>        <dbl>    <dbl>       <dbl>     <dbl> <chr>  <int>
 1 Adelie  Torgersen     39.1     18.7         181      3750 male    2007
 2 Adelie  Torgersen     39.5     17.4         186      3800 female  2007
 3 Adelie  Torgersen     40.3     18           195      3250 female  2007
 4 Adelie  Torgersen     NA       NA            NA        NA <NA>    2007
 5 Adelie  Torgersen     36.7     19.3         193      3450 female  2007
 6 Adelie  Torgersen     39.3     20.6         190      3650 male    2007
 7 Adelie  Torgersen     38.9     17.8         181      3625 female  2007
 8 Adelie  Torgersen     39.2     19.6         195      4675 male    2007
 9 Adelie  Torgersen     34.1     18.1         193      3475 <NA>    2007
10 Adelie  Torgersen     42       20.2         190      4250 <NA>    2007
# ℹ 334 more rows
…
